results
…
Residual standard error: 393.3 on 331 degrees of freedom
Multiple R-squared:  0.7621,    Adjusted R-squared:  0.7614 
F-statistic:  1060 on 1 and 331 DF,  p-value: < 2.2e-16

Checking the predicted values

Now let’s create a dataframe with the actual values and the predictions from our model.

# create a df with the real values, the residuals and the prediction
model_df <- tar_read(model_bm_fl_df)
print(as_tibble(model_df))

# A tibble: 333 × 4
   flipper_length_mm body_mass_g predicted residual
               <int>       <int>     <dbl>    <dbl>
 1               181        3750     3206.   544.  
 2               186        3800     3456.   344.  
 3               195        3250     3908.  -658.  
 4               193        3450     3807.  -357.  
 5               190        3650     3657.    -7.03
 6               181        3625     3206.   419.  
 7               195        4675     3908.   767.  
 8               182        3200     3256.   -55.8 
 9               191        3800     3707.    92.8 
10               198        4400     4058.   342.  
# … with 323 more rows
…
